Tractor Sales Forecast
…
# sw_augment - get model residuals
sw_augment(fit, timetk_idx = TRUE)

## # A tibble: 120 x 4
##    index      .actual .fitted    .resid
##    <date>       <dbl>   <dbl>     <dbl>
##  1 2003-01-01    2.15    2.15 0.00124  
##  2 2003-02-01    2.20    2.20 0.000591 
##  3 2003-03-01    2.27    2.27 0.000447 
##  4 2003-04-01    2.30    2.30 0.000361 
##  5 2003-05-01    2.31    2.31 0.000296 
##  6 2003-06-01    2.28    2.28 0.000218 
##  7 2003-07-01    2.32    2.32 0.000223 
##  8 2003-08-01    2.32    2.32 0.000195 
##  9 2003-09-01    2.23    2.23 0.0000950
## 10 2003-10-01    2.18    2.18 0.0000313
## # ... with 110 more rows
…
# Investigate test error 
error_tbl <- left_join(actual_tbl, fcast_tbl, by = c("date" = "index")) %>%
  rename(actual = value.x, pred = value.y) %>%
  select(date, actual, pred) %>%
  mutate(
    error     = actual - pred,
    error_pct = error / actual
  ) 
error_tbl

## # A tibble: 24 x 5
##    date       actual  pred error error_pct
##    <date>      <int> <dbl> <dbl>     <dbl>
##  1 2013-01-01    454   439  14.7    0.0323
##  2 2013-02-01    455   441  14.0    0.0307
##  3 2013-03-01    568   537  31.5    0.0554
##  4 2013-04-01    610   574  36.1    0.0591
##  5 2013-05-01    706   644  62.5    0.0885
##  6 2013-06-01    661   635  26.1    0.0395
##  7 2013-07-01    767   710  56.6    0.0738
##  8 2013-08-01    783   716  66.6    0.0851
##  9 2013-09-01    583   541  41.9    0.0719
## 10 2013-10-01    513   474  38.7    0.0754
## # ... with 14 more rows
…
